^C:\USERS\EGEOBOU\DOCUMENTS\VISUAL STUDIO 2013\PROJECTS\OPTIMIZATION TESTS\OPTIMIZATION TESTS\DEBUG\MAIN.OBJ
C:\USERS\EGEOBOU\DOCUMENTS\VISUAL STUDIO 2013\PROJECTS\OPTIMIZATION TESTS\DEBUG\OPTIMIZATION TESTS.ILK
C:\USERS\EGEOBOU\DOCUMENTS\VISUAL STUDIO 2013\PROJECTS\OPTIMIZATION TESTS\DEBUG\OPTIMIZATION TESTS.EXE
C:\USERS\EGEOBOU\DOCUMENTS\VISUAL STUDIO 2013\PROJECTS\OPTIMIZATION TESTS\DEBUG\OPTIMIZATION TESTS.PDB
